{
 "font": {
  "fileName": "Muralla-Regular"
 }, 
 "generator": {
  "contextualShape": true, 
  "insideCornerRadius": 6, 
  "offset": 0, 
  "outsideCornerRadius": 0, 
  "width": 125
 }, 
 "inherit": [
  "./options/options.json"
 ], 
 "metadata": {
  "familyname": "Muralla", 
  "fontname": "Muralla-Regular", 
  "fullname": "Muralla Regular", 
  "more": {
   "English": {
    "Descriptor": "Created in the Type:Bits workshop at ESAPA, Avilés (2017).", 
    "Designer": "Óscar Vázquez, Cynthia Garcia, Marina, Sara Picker, Xana del Campo, A. Garzalet", 
    "Designer URL": "", 
    "License": "OFL", 
    "License URL": "http://scripts.sil.org/OFL", 
    "Manufacturer": "Manufactura Independente", 
    "SubFamily": "Regular", 
    "Trademark": "", 
    "Vendor URL": "http://manufacturaindependente.org"
   }
  }, 
  "weight": "Regular"
 }
}
